MEGA多序列比对及建树（NJ）
…
## [1] 20
复制

然后我们只需要使用child()函数即可得到想要的节点编号，示例的进化树中根节点分出了3个节点，前两个就是我们想要用于分组的节点。

( node <- child(tree,node_root) )

## [1] 21 31 19
复制

接着通过groupClade函数，我们可以给树添加分组信息，只需要传入我们想要分组的节点编号的向量即可。下面的例子中，groupClade函数把节点21的所有子节点分为一组，把节点31的所有子节点分为另一组，转换为tibble数据查看一下，我们可以明显发现数据中添加了1列group信息，1代表第1组，2代表第2组，如果有别的节点不包含在我们输入的节点的子节点中，该函数会默认将这些节点标记为另外一组0。（需要注意groupClade只能对内部节点进行分组，想要将叶节点进行分组可以使用groupOTU函数）

groupClade(tree,c(21,31)) %>% as_tibble()

## # A tibble: 36 × 5
##    parent  node branch.length label       group
##     <int> <int>         <dbl> <chr>       <fct>
##  1     26     1       0.0102  MT268280.1  1    
##  2     26     2       0.00610 FJ548853.1  1    
##  3     25     3       0.00733 OQ883907.1  1    
##  4     24     4       0.00288 OQ357724.1  1    
##  5     27     5       0       NC_038291.1 1    
##  6     27     6       0.00921 AF331831.1  1    
##  7     28     7       0.0821  JN660150.1  1    
##  8     29     8       0.0547  MW803134.1  1    
##  9     30     9       0.0601  MZ416787.1  1    
## 10     30    10       0.0816  JN654459.1  1    
## # ℹ 26 more rows
…
